%YAML 1.1
%TAG !u! tag:unity3d.com,2011:
--- !u!1 &6654749496297688538
GameObject:
  m_ObjectHideFlags: 0
  m_CorrespondingSourceObject: {fileID: 0}
  m_PrefabInstance: {fileID: 0}
  m_PrefabAsset: {fileID: 0}
  serializedVersion: 6
  m_Component:
  - component: {fileID: 2153902322802772215}
  m_Layer: 0
  m_Name: Cast
  m_TagString: Untagged
  m_Icon: {fileID: 0}
  m_NavMeshLayer: 0
  m_StaticEditorFlags: 0
  m_IsActive: 1
--- !u!4 &2153902322802772215
Transform:
  m_ObjectHideFlags: 0
  m_CorrespondingSourceObject: {fileID: 0}
  m_PrefabInstance: {fileID: 0}
  m_PrefabAsset: {fileID: 0}
  m_GameObject: {fileID: 6654749496297688538}
  m_LocalRotation: {x: 0, y: 0, z: 0, w: 1}
  m_LocalPosition: {x: -90.045456, y: 25.66178, z: -6.432289}
  m_LocalScale: {x: 1, y: 1, z: 1}
  m_Children:
  - {fileID: 2006277487757036326}
  m_Father: {fileID: 0}
  m_RootOrder: 0
  m_LocalEulerAnglesHint: {x: 0, y: 0, z: 0}
--- !u!1001 &1685420293063144248
PrefabInstance:
  m_ObjectHideFlags: 0
  serializedVersion: 2
  m_Modification:
    m_TransformParent: {fileID: 2153902322802772215}
    m_Modifications:
    - target: {fileID: 915473642725079068, guid: 861da619cf16c544692d8b904edde350, type: 3}
      propertyPath: m_Name
      value: AnimatedCast
      objectReference: {fileID: 0}
    - target: {fileID: 915473642725079070, guid: 861da619cf16c544692d8b904edde350, type: 3}
      propertyPath: m_LocalPosition.x
      value: 0
      objectReference: {fileID: 0}
    - target: {fileID: 915473642725079070, guid: 861da619cf16c544692d8b904edde350, type: 3}
      propertyPath: m_LocalPosition.y
      value: 0
      objectReference: {fileID: 0}
    - target: {fileID: 915473642725079070, guid: 861da619cf16c544692d8b904edde350, type: 3}
      propertyPath: m_LocalPosition.z
      value: 0
      objectReference: {fileID: 0}
    - target: {fileID: 915473642725079070, guid: 861da619cf16c544692d8b904edde350, type: 3}
      propertyPath: m_LocalRotation.x
      value: -0
      objectReference: {fileID: 0}
    - target: {fileID: 915473642725079070, guid: 861da619cf16c544692d8b904edde350, type: 3}
      propertyPath: m_LocalRotation.y
      value: -0
      objectReference: {fileID: 0}
    - target: {fileID: 915473642725079070, guid: 861da619cf16c544692d8b904edde350, type: 3}
      propertyPath: m_LocalRotation.z
      value: -0
      objectReference: {fileID: 0}
    - target: {fileID: 915473642725079070, guid: 861da619cf16c544692d8b904edde350, type: 3}
      propertyPath: m_LocalRotation.w
      value: 1
      objectReference: {fileID: 0}
    - target: {fileID: 915473642725079070, guid: 861da619cf16c544692d8b904edde350, type: 3}
      propertyPath: m_RootOrder
      value: 0
      objectReference: {fileID: 0}
    - target: {fileID: 915473642725079070, guid: 861da619cf16c544692d8b904edde350, type: 3}
      propertyPath: m_LocalEulerAnglesHint.x
      value: 0
      objectReference: {fileID: 0}
    - target: {fileID: 915473642725079070, guid: 861da619cf16c544692d8b904edde350, type: 3}
      propertyPath: m_LocalEulerAnglesHint.y
      value: 0
      objectReference: {fileID: 0}
    - target: {fileID: 915473642725079070, guid: 861da619cf16c544692d8b904edde350, type: 3}
      propertyPath: m_LocalEulerAnglesHint.z
      value: 0
      objectReference: {fileID: 0}
    m_RemovedComponents: []
  m_SourcePrefab: {fileID: 100100000, guid: 861da619cf16c544692d8b904edde350, type: 3}
--- !u!4 &2006277487757036326 stripped
Transform:
  m_CorrespondingSourceObject: {fileID: 915473642725079070, guid: 861da619cf16c544692d8b904edde350, type: 3}
  m_PrefabInstance: {fileID: 1685420293063144248}
  m_PrefabAsset: {fileID: 0}
