%YAML 1.1
%TAG !u! tag:unity3d.com,2011:
--- !u!65 &4497057275345916431
BoxCollider:
  m_ObjectHideFlags: 0
  m_CorrespondingSourceObject: {fileID: 0}
  m_PrefabInstance: {fileID: 0}
  m_PrefabAsset: {fileID: 0}
  m_GameObject: {fileID: 943415601997591112}
  m_Material: {fileID: 0}
  m_IsTrigger: 0
  m_Enabled: 1
  serializedVersion: 2
  m_Size: {x: 0.01, y: 0.01, z: 0.01}
  m_Center: {x: 0, y: 0, z: 0}
--- !u!1 &6717365947465581789
GameObject:
  m_ObjectHideFlags: 0
  m_CorrespondingSourceObject: {fileID: 0}
  m_PrefabInstance: {fileID: 0}
  m_PrefabAsset: {fileID: 0}
  serializedVersion: 6
  m_Component:
  - component: {fileID: 4312213386412451409}
  m_Layer: 12
  m_Name: ConcreteBlockHardEdge
  m_TagString: Untagged
  m_Icon: {fileID: 0}
  m_NavMeshLayer: 0
  m_StaticEditorFlags: 0
  m_IsActive: 1
--- !u!4 &4312213386412451409
Transform:
  m_ObjectHideFlags: 0
  m_CorrespondingSourceObject: {fileID: 0}
  m_PrefabInstance: {fileID: 0}
  m_PrefabAsset: {fileID: 0}
  m_GameObject: {fileID: 6717365947465581789}
  m_LocalRotation: {x: -0, y: -0, z: -0, w: 1}
  m_LocalPosition: {x: 0, y: 0, z: 0}
  m_LocalScale: {x: 761.17365, y: 761.17365, z: 761.17365}
  m_Children:
  - {fileID: 458381798818244850}
  m_Father: {fileID: 0}
  m_RootOrder: 0
  m_LocalEulerAnglesHint: {x: 0, y: 0, z: 0}
--- !u!1001 &132511682108690201
PrefabInstance:
  m_ObjectHideFlags: 0
  serializedVersion: 2
  m_Modification:
    m_TransformParent: {fileID: 4312213386412451409}
    m_Modifications:
    - target: {fileID: -8679921383154817045, guid: 06a5963ce19e3984490b62cf32259fe0, type: 3}
      propertyPath: m_LocalPosition.x
      value: 0
      objectReference: {fileID: 0}
    - target: {fileID: -8679921383154817045, guid: 06a5963ce19e3984490b62cf32259fe0, type: 3}
      propertyPath: m_LocalPosition.y
      value: 0
      objectReference: {fileID: 0}
    - target: {fileID: -8679921383154817045, guid: 06a5963ce19e3984490b62cf32259fe0, type: 3}
      propertyPath: m_LocalPosition.z
      value: 0
      objectReference: {fileID: 0}
    - target: {fileID: -8679921383154817045, guid: 06a5963ce19e3984490b62cf32259fe0, type: 3}
      propertyPath: m_LocalRotation.x
      value: -0
      objectReference: {fileID: 0}
    - target: {fileID: -8679921383154817045, guid: 06a5963ce19e3984490b62cf32259fe0, type: 3}
      propertyPath: m_LocalRotation.y
      value: -0.70710707
      objectReference: {fileID: 0}
    - target: {fileID: -8679921383154817045, guid: 06a5963ce19e3984490b62cf32259fe0, type: 3}
      propertyPath: m_LocalRotation.z
      value: -0
      objectReference: {fileID: 0}
    - target: {fileID: -8679921383154817045, guid: 06a5963ce19e3984490b62cf32259fe0, type: 3}
      propertyPath: m_LocalRotation.w
      value: 0.70710653
      objectReference: {fileID: 0}
    - target: {fileID: -8679921383154817045, guid: 06a5963ce19e3984490b62cf32259fe0, type: 3}
      propertyPath: m_RootOrder
      value: 0
      objectReference: {fileID: 0}
    - target: {fileID: -8679921383154817045, guid: 06a5963ce19e3984490b62cf32259fe0, type: 3}
      propertyPath: m_LocalEulerAnglesHint.x
      value: 0
      objectReference: {fileID: 0}
    - target: {fileID: -8679921383154817045, guid: 06a5963ce19e3984490b62cf32259fe0, type: 3}
      propertyPath: m_LocalEulerAnglesHint.y
      value: -90
      objectReference: {fileID: 0}
    - target: {fileID: -8679921383154817045, guid: 06a5963ce19e3984490b62cf32259fe0, type: 3}
      propertyPath: m_LocalEulerAnglesHint.z
      value: 0
      objectReference: {fileID: 0}
    - target: {fileID: -8679921383154817045, guid: 06a5963ce19e3984490b62cf32259fe0, type: 3}
      propertyPath: m_LocalScale.x
      value: 1
      objectReference: {fileID: 0}
    - target: {fileID: -8679921383154817045, guid: 06a5963ce19e3984490b62cf32259fe0, type: 3}
      propertyPath: m_LocalScale.y
      value: 1
      objectReference: {fileID: 0}
    - target: {fileID: -8679921383154817045, guid: 06a5963ce19e3984490b62cf32259fe0, type: 3}
      propertyPath: m_LocalScale.z
      value: 1
      objectReference: {fileID: 0}
    - target: {fileID: -7511558181221131132, guid: 06a5963ce19e3984490b62cf32259fe0, type: 3}
      propertyPath: m_Materials.Array.data[0]
      value: 
      objectReference: {fileID: 2100000, guid: 9034e2692f698c04ea604136278c3121, type: 2}
    - target: {fileID: 919132149155446097, guid: 06a5963ce19e3984490b62cf32259fe0, type: 3}
      propertyPath: m_Name
      value: ConcreteBlockPartiallyBeveled
      objectReference: {fileID: 0}
    - target: {fileID: 919132149155446097, guid: 06a5963ce19e3984490b62cf32259fe0, type: 3}
      propertyPath: m_Layer
      value: 12
      objectReference: {fileID: 0}
    m_RemovedComponents: []
  m_SourcePrefab: {fileID: 100100000, guid: 06a5963ce19e3984490b62cf32259fe0, type: 3}
--- !u!1 &943415601997591112 stripped
GameObject:
  m_CorrespondingSourceObject: {fileID: 919132149155446097, guid: 06a5963ce19e3984490b62cf32259fe0, type: 3}
  m_PrefabInstance: {fileID: 132511682108690201}
  m_PrefabAsset: {fileID: 0}
--- !u!4 &458381798818244850 stripped
Transform:
  m_CorrespondingSourceObject: {fileID: -8679921383154817045, guid: 06a5963ce19e3984490b62cf32259fe0, type: 3}
  m_PrefabInstance: {fileID: 132511682108690201}
  m_PrefabAsset: {fileID: 0}
