%YAML 1.1
%TAG !u! tag:unity3d.com,2011:
--- !u!95 &555307638213261886
Animator:
  serializedVersion: 3
  m_ObjectHideFlags: 0
  m_CorrespondingSourceObject: {fileID: 0}
  m_PrefabInstance: {fileID: 0}
  m_PrefabAsset: {fileID: 0}
  m_GameObject: {fileID: 825760217814867929}
  m_Enabled: 1
  m_Avatar: {fileID: 0}
  m_Controller: {fileID: 9100000, guid: fd9899fe2c8e13149b6e1862cf0d5eb8, type: 2}
  m_CullingMode: 0
  m_UpdateMode: 0
  m_ApplyRootMotion: 0
  m_LinearVelocityBlending: 0
  m_WarningMessage: 
  m_HasTransformHierarchy: 1
  m_AllowConstantClipSamplingOptimization: 1
  m_KeepAnimatorControllerStateOnDisable: 0
--- !u!65 &7816741857984459598
BoxCollider:
  m_ObjectHideFlags: 0
  m_CorrespondingSourceObject: {fileID: 0}
  m_PrefabInstance: {fileID: 0}
  m_PrefabAsset: {fileID: 0}
  m_GameObject: {fileID: 825760217814867929}
  m_Material: {fileID: 0}
  m_IsTrigger: 0
  m_Enabled: 1
  serializedVersion: 2
  m_Size: {x: 2.8787813, y: 3.6403742, z: 2.3209615}
  m_Center: {x: 0.22240728, y: 1.813715, z: 0.38027692}
--- !u!65 &7813904133991894936
BoxCollider:
  m_ObjectHideFlags: 0
  m_CorrespondingSourceObject: {fileID: 0}
  m_PrefabInstance: {fileID: 0}
  m_PrefabAsset: {fileID: 0}
  m_GameObject: {fileID: 825760217814867929}
  m_Material: {fileID: 0}
  m_IsTrigger: 0
  m_Enabled: 1
  serializedVersion: 2
  m_Size: {x: 4.2937384, y: 3.4961262, z: 0.6958745}
  m_Center: {x: 0.4418435, y: 1.7645025, z: 0.26682708}
--- !u!1 &6945159418982504161
GameObject:
  m_ObjectHideFlags: 0
  m_CorrespondingSourceObject: {fileID: 0}
  m_PrefabInstance: {fileID: 0}
  m_PrefabAsset: {fileID: 0}
  serializedVersion: 6
  m_Component:
  - component: {fileID: 5963241224785397798}
  m_Layer: 12
  m_Name: Module
  m_TagString: Untagged
  m_Icon: {fileID: 0}
  m_NavMeshLayer: 0
  m_StaticEditorFlags: 0
  m_IsActive: 1
--- !u!4 &5963241224785397798
Transform:
  m_ObjectHideFlags: 0
  m_CorrespondingSourceObject: {fileID: 0}
  m_PrefabInstance: {fileID: 0}
  m_PrefabAsset: {fileID: 0}
  m_GameObject: {fileID: 6945159418982504161}
  m_LocalRotation: {x: 0, y: 0, z: 0, w: 1}
  m_LocalPosition: {x: 0, y: 0, z: 0}
  m_LocalScale: {x: 1, y: 1, z: 1}
  m_Children:
  - {fileID: 17557171830080867}
  m_Father: {fileID: 0}
  m_RootOrder: 0
  m_LocalEulerAnglesHint: {x: 0, y: 0, z: 0}
--- !u!1001 &555307638410977928
PrefabInstance:
  m_ObjectHideFlags: 0
  serializedVersion: 2
  m_Modification:
    m_TransformParent: {fileID: 5963241224785397798}
    m_Modifications:
    - target: {fileID: -8679921383154817045, guid: 61bc308e42c154d43b92fc43ee327fae, type: 3}
      propertyPath: m_LocalPosition.x
      value: 0
      objectReference: {fileID: 0}
    - target: {fileID: -8679921383154817045, guid: 61bc308e42c154d43b92fc43ee327fae, type: 3}
      propertyPath: m_LocalPosition.y
      value: 0
      objectReference: {fileID: 0}
    - target: {fileID: -8679921383154817045, guid: 61bc308e42c154d43b92fc43ee327fae, type: 3}
      propertyPath: m_LocalPosition.z
      value: 0
      objectReference: {fileID: 0}
    - target: {fileID: -8679921383154817045, guid: 61bc308e42c154d43b92fc43ee327fae, type: 3}
      propertyPath: m_LocalRotation.x
      value: 0
      objectReference: {fileID: 0}
    - target: {fileID: -8679921383154817045, guid: 61bc308e42c154d43b92fc43ee327fae, type: 3}
      propertyPath: m_LocalRotation.y
      value: 1
      objectReference: {fileID: 0}
    - target: {fileID: -8679921383154817045, guid: 61bc308e42c154d43b92fc43ee327fae, type: 3}
      propertyPath: m_LocalRotation.z
      value: 0
      objectReference: {fileID: 0}
    - target: {fileID: -8679921383154817045, guid: 61bc308e42c154d43b92fc43ee327fae, type: 3}
      propertyPath: m_LocalRotation.w
      value: 0
      objectReference: {fileID: 0}
    - target: {fileID: -8679921383154817045, guid: 61bc308e42c154d43b92fc43ee327fae, type: 3}
      propertyPath: m_RootOrder
      value: 0
      objectReference: {fileID: 0}
    - target: {fileID: -8679921383154817045, guid: 61bc308e42c154d43b92fc43ee327fae, type: 3}
      propertyPath: m_LocalEulerAnglesHint.x
      value: 0
      objectReference: {fileID: 0}
    - target: {fileID: -8679921383154817045, guid: 61bc308e42c154d43b92fc43ee327fae, type: 3}
      propertyPath: m_LocalEulerAnglesHint.y
      value: 180
      objectReference: {fileID: 0}
    - target: {fileID: -8679921383154817045, guid: 61bc308e42c154d43b92fc43ee327fae, type: 3}
      propertyPath: m_LocalEulerAnglesHint.z
      value: 0
      objectReference: {fileID: 0}
    - target: {fileID: -8465310134459502502, guid: 61bc308e42c154d43b92fc43ee327fae, type: 3}
      propertyPath: m_Layer
      value: 12
      objectReference: {fileID: 0}
    - target: {fileID: -7333815718059054646, guid: 61bc308e42c154d43b92fc43ee327fae, type: 3}
      propertyPath: m_Layer
      value: 12
      objectReference: {fileID: 0}
    - target: {fileID: -4804727150539636504, guid: 61bc308e42c154d43b92fc43ee327fae, type: 3}
      propertyPath: m_Layer
      value: 12
      objectReference: {fileID: 0}
    - target: {fileID: -4665685263444641493, guid: 61bc308e42c154d43b92fc43ee327fae, type: 3}
      propertyPath: m_Layer
      value: 12
      objectReference: {fileID: 0}
    - target: {fileID: -4194546834008169834, guid: 61bc308e42c154d43b92fc43ee327fae, type: 3}
      propertyPath: m_Materials.Array.data[0]
      value: 
      objectReference: {fileID: 2100000, guid: b5c54d550fdb67d4383fa856980d84c2, type: 2}
    - target: {fileID: -3538452369339234306, guid: 61bc308e42c154d43b92fc43ee327fae, type: 3}
      propertyPath: m_Layer
      value: 12
      objectReference: {fileID: 0}
    - target: {fileID: -3143310381562117693, guid: 61bc308e42c154d43b92fc43ee327fae, type: 3}
      propertyPath: m_Layer
      value: 12
      objectReference: {fileID: 0}
    - target: {fileID: -1849616963383701141, guid: 61bc308e42c154d43b92fc43ee327fae, type: 3}
      propertyPath: m_Layer
      value: 12
      objectReference: {fileID: 0}
    - target: {fileID: -1583190716195519641, guid: 61bc308e42c154d43b92fc43ee327fae, type: 3}
      propertyPath: m_Layer
      value: 12
      objectReference: {fileID: 0}
    - target: {fileID: -1179508679445665580, guid: 61bc308e42c154d43b92fc43ee327fae, type: 3}
      propertyPath: m_Layer
      value: 12
      objectReference: {fileID: 0}
    - target: {fileID: 879750965563541673, guid: 61bc308e42c154d43b92fc43ee327fae, type: 3}
      propertyPath: m_Layer
      value: 12
      objectReference: {fileID: 0}
    - target: {fileID: 919132149155446097, guid: 61bc308e42c154d43b92fc43ee327fae, type: 3}
      propertyPath: m_Name
      value: ModuleAnim
      objectReference: {fileID: 0}
    - target: {fileID: 919132149155446097, guid: 61bc308e42c154d43b92fc43ee327fae, type: 3}
      propertyPath: m_Layer
      value: 12
      objectReference: {fileID: 0}
    - target: {fileID: 994460097956288847, guid: 61bc308e42c154d43b92fc43ee327fae, type: 3}
      propertyPath: m_Layer
      value: 12
      objectReference: {fileID: 0}
    - target: {fileID: 2094929607831305865, guid: 61bc308e42c154d43b92fc43ee327fae, type: 3}
      propertyPath: m_Layer
      value: 12
      objectReference: {fileID: 0}
    - target: {fileID: 3612885366025285854, guid: 61bc308e42c154d43b92fc43ee327fae, type: 3}
      propertyPath: m_Layer
      value: 12
      objectReference: {fileID: 0}
    - target: {fileID: 4278594531935038842, guid: 61bc308e42c154d43b92fc43ee327fae, type: 3}
      propertyPath: m_Layer
      value: 12
      objectReference: {fileID: 0}
    - target: {fileID: 4824542264531704490, guid: 61bc308e42c154d43b92fc43ee327fae, type: 3}
      propertyPath: m_Layer
      value: 12
      objectReference: {fileID: 0}
    - target: {fileID: 5528860797864257434, guid: 61bc308e42c154d43b92fc43ee327fae, type: 3}
      propertyPath: m_Layer
      value: 12
      objectReference: {fileID: 0}
    - target: {fileID: 6592534289513660462, guid: 61bc308e42c154d43b92fc43ee327fae, type: 3}
      propertyPath: m_Layer
      value: 12
      objectReference: {fileID: 0}
    - target: {fileID: 6600302034522550179, guid: 61bc308e42c154d43b92fc43ee327fae, type: 3}
      propertyPath: m_Layer
      value: 12
      objectReference: {fileID: 0}
    - target: {fileID: 7036213049465896255, guid: 61bc308e42c154d43b92fc43ee327fae, type: 3}
      propertyPath: m_Layer
      value: 12
      objectReference: {fileID: 0}
    - target: {fileID: 7058752505928822347, guid: 61bc308e42c154d43b92fc43ee327fae, type: 3}
      propertyPath: m_Layer
      value: 12
      objectReference: {fileID: 0}
    - target: {fileID: 7478632118382210697, guid: 61bc308e42c154d43b92fc43ee327fae, type: 3}
      propertyPath: m_Layer
      value: 12
      objectReference: {fileID: 0}
    - target: {fileID: 7802430928173389887, guid: 61bc308e42c154d43b92fc43ee327fae, type: 3}
      propertyPath: m_Layer
      value: 12
      objectReference: {fileID: 0}
    - target: {fileID: 8590224050735239218, guid: 61bc308e42c154d43b92fc43ee327fae, type: 3}
      propertyPath: m_Layer
      value: 12
      objectReference: {fileID: 0}
    m_RemovedComponents: []
  m_SourcePrefab: {fileID: 100100000, guid: 61bc308e42c154d43b92fc43ee327fae, type: 3}
--- !u!1 &825760217814867929 stripped
GameObject:
  m_CorrespondingSourceObject: {fileID: 919132149155446097, guid: 61bc308e42c154d43b92fc43ee327fae, type: 3}
  m_PrefabInstance: {fileID: 555307638410977928}
  m_PrefabAsset: {fileID: 0}
--- !u!4 &17557171830080867 stripped
Transform:
  m_CorrespondingSourceObject: {fileID: -8679921383154817045, guid: 61bc308e42c154d43b92fc43ee327fae, type: 3}
  m_PrefabInstance: {fileID: 555307638410977928}
  m_PrefabAsset: {fileID: 0}
