%YAML 1.1
%TAG !u! tag:unity3d.com,2011:
--- !u!1 &4337290892786514514
GameObject:
  m_ObjectHideFlags: 0
  m_CorrespondingSourceObject: {fileID: 0}
  m_PrefabInstance: {fileID: 0}
  m_PrefabAsset: {fileID: 0}
  serializedVersion: 6
  m_Component:
  - component: {fileID: 3997780001014669544}
  - component: {fileID: 8711800785639834386}
  - component: {fileID: 7209210310206256327}
  m_Layer: 12
  m_Name: Pipe2
  m_TagString: Untagged
  m_Icon: {fileID: 0}
  m_NavMeshLayer: 0
  m_StaticEditorFlags: 0
  m_IsActive: 1
--- !u!4 &3997780001014669544
Transform:
  m_ObjectHideFlags: 0
  m_CorrespondingSourceObject: {fileID: 0}
  m_PrefabInstance: {fileID: 0}
  m_PrefabAsset: {fileID: 0}
  m_GameObject: {fileID: 4337290892786514514}
  m_LocalRotation: {x: 0, y: 0.7071068, z: 0, w: 0.7071068}
  m_LocalPosition: {x: 0, y: 0, z: 0}
  m_LocalScale: {x: 1, y: 1, z: 1}
  m_Children:
  - {fileID: 3488210829963283077}
  m_Father: {fileID: 0}
  m_RootOrder: 0
  m_LocalEulerAnglesHint: {x: 0, y: 90, z: 0}
--- !u!65 &8711800785639834386
BoxCollider:
  m_ObjectHideFlags: 0
  m_CorrespondingSourceObject: {fileID: 0}
  m_PrefabInstance: {fileID: 0}
  m_PrefabAsset: {fileID: 0}
  m_GameObject: {fileID: 4337290892786514514}
  m_Material: {fileID: 0}
  m_IsTrigger: 0
  m_Enabled: 1
  serializedVersion: 2
  m_Size: {x: 0.020926675, y: 0.019890925, z: 0.064515956}
  m_Center: {x: 0.00062843354, y: 0.00017754853, z: 0.002589376}
--- !u!65 &7209210310206256327
BoxCollider:
  m_ObjectHideFlags: 0
  m_CorrespondingSourceObject: {fileID: 0}
  m_PrefabInstance: {fileID: 0}
  m_PrefabAsset: {fileID: 0}
  m_GameObject: {fileID: 4337290892786514514}
  m_Material: {fileID: 0}
  m_IsTrigger: 0
  m_Enabled: 1
  serializedVersion: 2
  m_Size: {x: 0.024136944, y: 0.024102516, z: 0.004844464}
  m_Center: {x: -0.0002699554, y: -0.00016607284, z: -0.03220156}
--- !u!1001 &4026820847327817070
PrefabInstance:
  m_ObjectHideFlags: 0
  serializedVersion: 2
  m_Modification:
    m_TransformParent: {fileID: 3997780001014669544}
    m_Modifications:
    - target: {fileID: -8679921383154817045, guid: 8bf24f1e075939a4ab0d391563e34736, type: 3}
      propertyPath: m_LocalPosition.x
      value: 0
      objectReference: {fileID: 0}
    - target: {fileID: -8679921383154817045, guid: 8bf24f1e075939a4ab0d391563e34736, type: 3}
      propertyPath: m_LocalPosition.y
      value: 0.0004
      objectReference: {fileID: 0}
    - target: {fileID: -8679921383154817045, guid: 8bf24f1e075939a4ab0d391563e34736, type: 3}
      propertyPath: m_LocalPosition.z
      value: 0.0006
      objectReference: {fileID: 0}
    - target: {fileID: -8679921383154817045, guid: 8bf24f1e075939a4ab0d391563e34736, type: 3}
      propertyPath: m_LocalRotation.x
      value: 0
      objectReference: {fileID: 0}
    - target: {fileID: -8679921383154817045, guid: 8bf24f1e075939a4ab0d391563e34736, type: 3}
      propertyPath: m_LocalRotation.y
      value: -0
      objectReference: {fileID: 0}
    - target: {fileID: -8679921383154817045, guid: 8bf24f1e075939a4ab0d391563e34736, type: 3}
      propertyPath: m_LocalRotation.z
      value: -0
      objectReference: {fileID: 0}
    - target: {fileID: -8679921383154817045, guid: 8bf24f1e075939a4ab0d391563e34736, type: 3}
      propertyPath: m_LocalRotation.w
      value: 1
      objectReference: {fileID: 0}
    - target: {fileID: -8679921383154817045, guid: 8bf24f1e075939a4ab0d391563e34736, type: 3}
      propertyPath: m_RootOrder
      value: 0
      objectReference: {fileID: 0}
    - target: {fileID: -8679921383154817045, guid: 8bf24f1e075939a4ab0d391563e34736, type: 3}
      propertyPath: m_LocalEulerAnglesHint.x
      value: 0
      objectReference: {fileID: 0}
    - target: {fileID: -8679921383154817045, guid: 8bf24f1e075939a4ab0d391563e34736, type: 3}
      propertyPath: m_LocalEulerAnglesHint.y
      value: 0
      objectReference: {fileID: 0}
    - target: {fileID: -8679921383154817045, guid: 8bf24f1e075939a4ab0d391563e34736, type: 3}
      propertyPath: m_LocalEulerAnglesHint.z
      value: 0
      objectReference: {fileID: 0}
    - target: {fileID: -7511558181221131132, guid: 8bf24f1e075939a4ab0d391563e34736, type: 3}
      propertyPath: m_Materials.Array.data[0]
      value: 
      objectReference: {fileID: 2100000, guid: f0ae8f88e5fe0474491101cfea8d7ce0, type: 2}
    - target: {fileID: 919132149155446097, guid: 8bf24f1e075939a4ab0d391563e34736, type: 3}
      propertyPath: m_Name
      value: Pipe2
      objectReference: {fileID: 0}
    m_RemovedComponents: []
  m_SourcePrefab: {fileID: 100100000, guid: 8bf24f1e075939a4ab0d391563e34736, type: 3}
--- !u!4 &3488210829963283077 stripped
Transform:
  m_CorrespondingSourceObject: {fileID: -8679921383154817045, guid: 8bf24f1e075939a4ab0d391563e34736, type: 3}
  m_PrefabInstance: {fileID: 4026820847327817070}
  m_PrefabAsset: {fileID: 0}
