%YAML 1.1
%TAG !u! tag:unity3d.com,2011:
--- !u!1 &7549836650838592930
GameObject:
  m_ObjectHideFlags: 0
  m_CorrespondingSourceObject: {fileID: 0}
  m_PrefabInstance: {fileID: 0}
  m_PrefabAsset: {fileID: 0}
  serializedVersion: 6
  m_Component:
  - component: {fileID: 7496462472514835753}
  m_Layer: 0
  m_Name: RailingBeam
  m_TagString: Untagged
  m_Icon: {fileID: 0}
  m_NavMeshLayer: 0
  m_StaticEditorFlags: 0
  m_IsActive: 1
--- !u!4 &7496462472514835753
Transform:
  m_ObjectHideFlags: 0
  m_CorrespondingSourceObject: {fileID: 0}
  m_PrefabInstance: {fileID: 0}
  m_PrefabAsset: {fileID: 0}
  m_GameObject: {fileID: 7549836650838592930}
  m_LocalRotation: {x: -0, y: -0, z: -0, w: 1}
  m_LocalPosition: {x: 0, y: 0, z: 0}
  m_LocalScale: {x: 230.92326, y: 230.92326, z: 230.92326}
  m_Children:
  - {fileID: 6913034492219326020}
  m_Father: {fileID: 0}
  m_RootOrder: 0
  m_LocalEulerAnglesHint: {x: 0, y: 0, z: 0}
--- !u!1001 &6375603124127406511
PrefabInstance:
  m_ObjectHideFlags: 0
  serializedVersion: 2
  m_Modification:
    m_TransformParent: {fileID: 7496462472514835753}
    m_Modifications:
    - target: {fileID: -8679921383154817045, guid: 725dfc975b4ac5f4dbb577d8ff128951, type: 3}
      propertyPath: m_LocalPosition.x
      value: 0
      objectReference: {fileID: 0}
    - target: {fileID: -8679921383154817045, guid: 725dfc975b4ac5f4dbb577d8ff128951, type: 3}
      propertyPath: m_LocalPosition.y
      value: 0
      objectReference: {fileID: 0}
    - target: {fileID: -8679921383154817045, guid: 725dfc975b4ac5f4dbb577d8ff128951, type: 3}
      propertyPath: m_LocalPosition.z
      value: 0
      objectReference: {fileID: 0}
    - target: {fileID: -8679921383154817045, guid: 725dfc975b4ac5f4dbb577d8ff128951, type: 3}
      propertyPath: m_LocalRotation.x
      value: -0
      objectReference: {fileID: 0}
    - target: {fileID: -8679921383154817045, guid: 725dfc975b4ac5f4dbb577d8ff128951, type: 3}
      propertyPath: m_LocalRotation.y
      value: -0
      objectReference: {fileID: 0}
    - target: {fileID: -8679921383154817045, guid: 725dfc975b4ac5f4dbb577d8ff128951, type: 3}
      propertyPath: m_LocalRotation.z
      value: -0
      objectReference: {fileID: 0}
    - target: {fileID: -8679921383154817045, guid: 725dfc975b4ac5f4dbb577d8ff128951, type: 3}
      propertyPath: m_LocalRotation.w
      value: 1
      objectReference: {fileID: 0}
    - target: {fileID: -8679921383154817045, guid: 725dfc975b4ac5f4dbb577d8ff128951, type: 3}
      propertyPath: m_RootOrder
      value: 0
      objectReference: {fileID: 0}
    - target: {fileID: -8679921383154817045, guid: 725dfc975b4ac5f4dbb577d8ff128951, type: 3}
      propertyPath: m_LocalEulerAnglesHint.x
      value: 0
      objectReference: {fileID: 0}
    - target: {fileID: -8679921383154817045, guid: 725dfc975b4ac5f4dbb577d8ff128951, type: 3}
      propertyPath: m_LocalEulerAnglesHint.y
      value: 0
      objectReference: {fileID: 0}
    - target: {fileID: -8679921383154817045, guid: 725dfc975b4ac5f4dbb577d8ff128951, type: 3}
      propertyPath: m_LocalEulerAnglesHint.z
      value: 0
      objectReference: {fileID: 0}
    - target: {fileID: -8679921383154817045, guid: 725dfc975b4ac5f4dbb577d8ff128951, type: 3}
      propertyPath: m_LocalScale.x
      value: 1
      objectReference: {fileID: 0}
    - target: {fileID: -8679921383154817045, guid: 725dfc975b4ac5f4dbb577d8ff128951, type: 3}
      propertyPath: m_LocalScale.y
      value: 1
      objectReference: {fileID: 0}
    - target: {fileID: -8679921383154817045, guid: 725dfc975b4ac5f4dbb577d8ff128951, type: 3}
      propertyPath: m_LocalScale.z
      value: 1
      objectReference: {fileID: 0}
    - target: {fileID: -7511558181221131132, guid: 725dfc975b4ac5f4dbb577d8ff128951, type: 3}
      propertyPath: m_Materials.Array.data[0]
      value: 
      objectReference: {fileID: 2100000, guid: 2e581f5c6d5694547ad03aa35867481e, type: 2}
    - target: {fileID: 919132149155446097, guid: 725dfc975b4ac5f4dbb577d8ff128951, type: 3}
      propertyPath: m_Name
      value: RailingModell
      objectReference: {fileID: 0}
    m_RemovedComponents: []
  m_SourcePrefab: {fileID: 100100000, guid: 725dfc975b4ac5f4dbb577d8ff128951, type: 3}
--- !u!4 &6913034492219326020 stripped
Transform:
  m_CorrespondingSourceObject: {fileID: -8679921383154817045, guid: 725dfc975b4ac5f4dbb577d8ff128951, type: 3}
  m_PrefabInstance: {fileID: 6375603124127406511}
  m_PrefabAsset: {fileID: 0}
