%YAML 1.1
%TAG !u! tag:unity3d.com,2011:
--- !u!1 &2292067454758401910
GameObject:
  m_ObjectHideFlags: 0
  m_CorrespondingSourceObject: {fileID: 0}
  m_PrefabInstance: {fileID: 0}
  m_PrefabAsset: {fileID: 0}
  serializedVersion: 6
  m_Component:
  - component: {fileID: 2718195524158970416}
  m_Layer: 0
  m_Name: SteelBeam 1
  m_TagString: Untagged
  m_Icon: {fileID: 0}
  m_NavMeshLayer: 0
  m_StaticEditorFlags: 0
  m_IsActive: 1
--- !u!4 &2718195524158970416
Transform:
  m_ObjectHideFlags: 0
  m_CorrespondingSourceObject: {fileID: 0}
  m_PrefabInstance: {fileID: 0}
  m_PrefabAsset: {fileID: 0}
  m_GameObject: {fileID: 2292067454758401910}
  m_LocalRotation: {x: 1, y: -0, z: -0, w: -0.00000035762784}
  m_LocalPosition: {x: 0, y: 0, z: 0}
  m_LocalScale: {x: 1, y: 1, z: 1}
  m_Children:
  - {fileID: 1771237638105464512}
  m_Father: {fileID: 0}
  m_RootOrder: 0
  m_LocalEulerAnglesHint: {x: 180, y: 0, z: 0}
--- !u!1001 &2242240943710181675
PrefabInstance:
  m_ObjectHideFlags: 0
  serializedVersion: 2
  m_Modification:
    m_TransformParent: {fileID: 2718195524158970416}
    m_Modifications:
    - target: {fileID: -8679921383154817045, guid: f7c318e680594e849a3cd7e73c49e075, type: 3}
      propertyPath: m_LocalPosition.x
      value: 0
      objectReference: {fileID: 0}
    - target: {fileID: -8679921383154817045, guid: f7c318e680594e849a3cd7e73c49e075, type: 3}
      propertyPath: m_LocalPosition.y
      value: 0
      objectReference: {fileID: 0}
    - target: {fileID: -8679921383154817045, guid: f7c318e680594e849a3cd7e73c49e075, type: 3}
      propertyPath: m_LocalPosition.z
      value: 0
      objectReference: {fileID: 0}
    - target: {fileID: -8679921383154817045, guid: f7c318e680594e849a3cd7e73c49e075, type: 3}
      propertyPath: m_LocalRotation.x
      value: -0
      objectReference: {fileID: 0}
    - target: {fileID: -8679921383154817045, guid: f7c318e680594e849a3cd7e73c49e075, type: 3}
      propertyPath: m_LocalRotation.y
      value: -1
      objectReference: {fileID: 0}
    - target: {fileID: -8679921383154817045, guid: f7c318e680594e849a3cd7e73c49e075, type: 3}
      propertyPath: m_LocalRotation.z
      value: -0
      objectReference: {fileID: 0}
    - target: {fileID: -8679921383154817045, guid: f7c318e680594e849a3cd7e73c49e075, type: 3}
      propertyPath: m_LocalRotation.w
      value: 0.0000004768371
      objectReference: {fileID: 0}
    - target: {fileID: -8679921383154817045, guid: f7c318e680594e849a3cd7e73c49e075, type: 3}
      propertyPath: m_RootOrder
      value: 0
      objectReference: {fileID: 0}
    - target: {fileID: -8679921383154817045, guid: f7c318e680594e849a3cd7e73c49e075, type: 3}
      propertyPath: m_LocalEulerAnglesHint.x
      value: 0
      objectReference: {fileID: 0}
    - target: {fileID: -8679921383154817045, guid: f7c318e680594e849a3cd7e73c49e075, type: 3}
      propertyPath: m_LocalEulerAnglesHint.y
      value: -180
      objectReference: {fileID: 0}
    - target: {fileID: -8679921383154817045, guid: f7c318e680594e849a3cd7e73c49e075, type: 3}
      propertyPath: m_LocalEulerAnglesHint.z
      value: 0
      objectReference: {fileID: 0}
    - target: {fileID: -8679921383154817045, guid: f7c318e680594e849a3cd7e73c49e075, type: 3}
      propertyPath: m_LocalScale.x
      value: 1090.8514
      objectReference: {fileID: 0}
    - target: {fileID: -8679921383154817045, guid: f7c318e680594e849a3cd7e73c49e075, type: 3}
      propertyPath: m_LocalScale.y
      value: 48.29459
      objectReference: {fileID: 0}
    - target: {fileID: -8679921383154817045, guid: f7c318e680594e849a3cd7e73c49e075, type: 3}
      propertyPath: m_LocalScale.z
      value: 50.817734
      objectReference: {fileID: 0}
    - target: {fileID: 919132149155446097, guid: f7c318e680594e849a3cd7e73c49e075, type: 3}
      propertyPath: m_Name
      value: SteelFrame
      objectReference: {fileID: 0}
    m_RemovedComponents: []
  m_SourcePrefab: {fileID: 100100000, guid: f7c318e680594e849a3cd7e73c49e075, type: 3}
--- !u!4 &1771237638105464512 stripped
Transform:
  m_CorrespondingSourceObject: {fileID: -8679921383154817045, guid: f7c318e680594e849a3cd7e73c49e075, type: 3}
  m_PrefabInstance: {fileID: 2242240943710181675}
  m_PrefabAsset: {fileID: 0}
