%YAML 1.1
%TAG !u! tag:unity3d.com,2011:
--- !u!21 &2100000
Material:
  serializedVersion: 6
  m_ObjectHideFlags: 0
  m_CorrespondingSourceObject: {fileID: 0}
  m_PrefabInstance: {fileID: 0}
  m_PrefabAsset: {fileID: 0}
  m_Name: Button_E
  m_Shader: {fileID: -6465566751694194690, guid: d30d495e881458446aeba66729cb9c93, type: 3}
  m_ShaderKeywords: _BLENDMODE_ADD _ENABLE_FOG_ON_TRANSPARENT _SURFACE_TYPE_TRANSPARENT
  m_LightmapFlags: 4
  m_EnableInstancingVariants: 0
  m_DoubleSidedGI: 0
  m_CustomRenderQueue: 3000
  stringTagMap:
    MotionVector: User
    RenderType: Transparent
  disabledShaderPasses:
  - DistortionVectors
  - MOTIONVECTORS
  - TransparentDepthPrepass
  - TransparentDepthPostpass
  - TransparentBackface
  m_SavedProperties:
    serializedVersion: 3
    m_TexEnvs:
    - Texture2D_C2727B7B:
        m_Texture: {fileID: 2800000, guid: 066a59114ca68e449afa64759648ffd5, type: 3}
        m_Scale: {x: 1, y: 1}
        m_Offset: {x: 0, y: 0}
    - Texture2D_D830B19A:
        m_Texture: {fileID: 2800000, guid: a3ab1782cb860bd4bb0e4ff14435cee0, type: 3}
        m_Scale: {x: 1, y: 1}
        m_Offset: {x: 0, y: 0}
    - _ScreenHoloAlpha_B3B9A410_Texture2D55C54116_32525208:
        m_Texture: {fileID: 2800000, guid: 066a59114ca68e449afa64759648ffd5, type: 3}
        m_Scale: {x: 1, y: 1}
        m_Offset: {x: 0, y: 0}
    m_Floats:
    - BOOLEAN_3FAECAA3: 0
    - Vector1_23E10E96: 0.1
    - Vector1_53040F3C: 1.5
    - Vector1_7C65A1DD: 1.3
    - Vector1_BBE08A95: 1.5
    - Vector1_D09164: 0.3
    - Vector1_DB1AC3BE: 0
    - _AlphaCutoffEnable: 0
    - _AlphaDstBlend: 1
    - _AlphaSrcBlend: 1
    - _BlendMode: 1
    - _CullMode: 2
    - _CullModeForward: 2
    - _DoubleSidedEnable: 0
    - _DoubleSidedNormalMode: 2
    - _DstBlend: 1
    - _EnableFogOnTransparent: 1
    - _ReceivesSSR: 0
    - _RenderQueueType: 5
    - _RequireSplitLighting: 0
    - _SrcBlend: 1
    - _StencilRef: 0
    - _StencilRefDepth: 0
    - _StencilRefDistortionVec: 4
    - _StencilRefGBuffer: 2
    - _StencilRefMV: 32
    - _StencilWriteMask: 6
    - _StencilWriteMaskDepth: 8
    - _StencilWriteMaskDistortionVec: 4
    - _StencilWriteMaskGBuffer: 14
    - _StencilWriteMaskMV: 40
    - _SurfaceType: 1
    - _TransparentBackfaceEnable: 0
    - _TransparentCullMode: 2
    - _TransparentDepthPostpassEnable: 0
    - _TransparentDepthPrepassEnable: 0
    - _TransparentSortPriority: 0
    - _TransparentZWrite: 1
    - _UseShadowThreshold: 0
    - _ZTestDepthEqualForOpaque: 8
    - _ZTestGBuffer: 4
    - _ZTestTransparent: 8
    - _ZWrite: 1
    m_Colors:
    - Color_EE3690BD: {r: 0.14980397, g: 1.4980392, b: 1.4980392, a: 0.69803923}
    - Vector2_BC013C97: {r: 5, g: 5, b: 0, a: 0}
    - _DoubleSidedConstants: {r: 1, g: 1, b: -1, a: 0}
    - _EmissionColor: {r: 1, g: 1, b: 1, a: 1}
  m_BuildTextureStacks: []
--- !u!114 &5594069604289102181
MonoBehaviour:
  m_ObjectHideFlags: 11
  m_CorrespondingSourceObject: {fileID: 0}
  m_PrefabInstance: {fileID: 0}
  m_PrefabAsset: {fileID: 0}
  m_GameObject: {fileID: 0}
  m_Enabled: 1
  m_EditorHideFlags: 0
  m_Script: {fileID: 11500000, guid: da692e001514ec24dbc4cca1949ff7e8, type: 3}
  m_Name: 
  m_EditorClassIdentifier: 
  version: 2
