%YAML 1.1
%TAG !u! tag:unity3d.com,2011:
--- !u!21 &2100000
Material:
  serializedVersion: 6
  m_ObjectHideFlags: 0
  m_CorrespondingSourceObject: {fileID: 0}
  m_PrefabInstance: {fileID: 0}
  m_PrefabAsset: {fileID: 0}
  m_Name: Shader Graphs_Dissolve
  m_Shader: {fileID: -6465566751694194690, guid: f6b8566f7a6b11a47b8757487468ed53, type: 3}
  m_ShaderKeywords: 
  m_LightmapFlags: 4
  m_EnableInstancingVariants: 0
  m_DoubleSidedGI: 0
  m_CustomRenderQueue: -1
  stringTagMap:
    MotionVector: User
  disabledShaderPasses:
  - MOTIONVECTORS
  m_SavedProperties:
    serializedVersion: 3
    m_TexEnvs: []
    m_Floats:
    - EdgeWidth: 0.01
    - NoiseScale: 30
    - Vector1_BC3EA0E6: 1
    - Vector1_C9BDEF10: 0.1
    m_Colors:
    - Color_9F8BD3C8: {r: 0.764151, g: 0.06717013, b: 0.039649345, a: 0}
    - EdgeColor: {r: 1, g: 0.5587923, b: 0, a: 0}
    - Vector2_422F93ED: {r: 1, g: 1, b: 0, a: 0}
    - Vector2_A3545FEA: {r: 0.5, g: 0.5, b: 0, a: 0}
    - Vector2_D1374D8F: {r: 5, g: 5, b: 0, a: 0}
  m_BuildTextureStacks: []
