%YAML 1.1
%TAG !u! tag:unity3d.com,2011:
--- !u!114 &-3406894482561566756
MonoBehaviour:
  m_ObjectHideFlags: 11
  m_CorrespondingSourceObject: {fileID: 0}
  m_PrefabInstance: {fileID: 0}
  m_PrefabAsset: {fileID: 0}
  m_GameObject: {fileID: 0}
  m_Enabled: 1
  m_EditorHideFlags: 0
  m_Script: {fileID: 11500000, guid: da692e001514ec24dbc4cca1949ff7e8, type: 3}
  m_Name: 
  m_EditorClassIdentifier: 
  version: 2
--- !u!21 &2100000
Material:
  serializedVersion: 6
  m_ObjectHideFlags: 0
  m_CorrespondingSourceObject: {fileID: 0}
  m_PrefabInstance: {fileID: 0}
  m_PrefabAsset: {fileID: 0}
  m_Name: Decal_SignWaterCurrentCaution_1x1
  m_Shader: {fileID: -6465566751694194690, guid: 9ce731f37fafef94a868d7e534e8f701, type: 3}
  m_ShaderKeywords: BOOLEAN_3BEB3941_ON _ALBEDOCONTRIBUTION _COLORMAP _MASKMAP _NORMALMAP
    _NORMALMAP_TANGENT_SPACE
  m_LightmapFlags: 4
  m_EnableInstancingVariants: 1
  m_DoubleSidedGI: 0
  m_CustomRenderQueue: -1
  stringTagMap: {}
  disabledShaderPasses:
  - DistortionVectors
  - MOTIONVECTORS
  - TransparentDepthPrepass
  - TransparentDepthPostpass
  - TransparentBackface
  - DBufferMesh_M
  - DBufferMesh_AO
  - DBufferMesh_MAO
  - Mesh_Emissive
  - DBufferMesh_MS
  - DBufferMesh_AOS
  - DBufferMesh_MAOS
  m_SavedProperties:
    serializedVersion: 3
    m_TexEnvs:
    - Texture2D_37893F52:
        m_Texture: {fileID: 0}
        m_Scale: {x: 1, y: 1}
        m_Offset: {x: 0, y: 0}
    - Texture2D_6D8C725F:
        m_Texture: {fileID: 0}
        m_Scale: {x: 1, y: 1}
        m_Offset: {x: 0, y: 0}
    - Texture2D_B6C9F06:
        m_Texture: {fileID: 2800000, guid: d7661008174740b4fab32b02488e2645, type: 3}
        m_Scale: {x: 1, y: 1}
        m_Offset: {x: 0, y: 0}
    - Texture2D_C10D83E9:
        m_Texture: {fileID: 0}
        m_Scale: {x: 1, y: 1}
        m_Offset: {x: 0, y: 0}
    m_Floats:
    - BOOLEAN_3BEB3941: 1
    - BOOLEAN_A9CBD7EF: 0
    - BOOLEAN_AA33E045: 0
    - Vector1_BCD61AF5: 0.8
    - Vector1_E981267D: 1
    - _DecalMeshDepthBias: 0
    - _DrawOrder: 0
    m_Colors:
    - Color_CC235550: {r: 1, g: 1, b: 1, a: 1}
  m_BuildTextureStacks: []
